{
  "hosting": [
    {
      "target": "app",
      "public": "build",
      "ignore": ["firebase.json", "**/.*", "**/node_modules/**"],
      "rewrites": [
        {
          "source": "/webhook",
          "function": "application"
        },
        {
          "source": "/test",
          "function": "application"
        },
        {
          "source": "/tg-application-1035367941",
          "function": "application"
        },
        {
          "source": "**",
          "destination": "/index.html"
        }
      ]
    },
    {
      "target": "lending",
      "public": "lending",
      "ignore": ["firebase.json", "**/.*", "**/node_modules/**"]
    },
    {
      "target": "lending_prod",
      "public": "lending",
      "ignore": ["firebase.json", "**/.*", "**/node_modules/**"]
    }
  ]
}
